myhdl/test_clock.vcd
$date
    Sat May 28 18:39:08 2016
$end
$version
    MyHDL 0.8.1
$end
$timescale
    500ms
$end

$scope module test_clock $end
$var reg 1 ! reset $end
$var reg 1 " pm $end
$var reg 1 # en $end
$var reg 1 $ clk $end
$var reg 4 % count(0) $end
$var reg 4 & count(1) $end
$var reg 4 ' count(2) $end
$var reg 4 ( count(3) $end
$var reg 4 ) count(4) $end
$var reg 4 * count(5) $end
$var reg 7 + LED(0) $end
$var reg 7 , LED(1) $end
$var reg 7 - LED(2) $end
$var reg 7 . LED(3) $end
$var reg 7 / LED(4) $end
$var reg 7 0 LED(5) $end
$scope module clock_inst $end
$var reg 1 ! reset $end
$var reg 1 " pm $end
$var reg 1 # en $end
$var reg 1 $ clk $end
$var reg 4 % count(0) $end
$var reg 4 & count(1) $end
$var reg 4 ' count(2) $end
$var reg 4 ( count(3) $end
$var reg 4 ) count(4) $end
$var reg 4 * count(5) $end
$var reg 7 + LED(0) $end
$var reg 7 , LED(1) $end
$var reg 7 - LED(2) $end
$var reg 7 . LED(3) $end
$var reg 7 / LED(4) $end
$var reg 7 0 LED(5) $end
$upscope $end
$upscope $end

$enddefinitions $end
$dumpvars
0!
0"
1#
0$
b0000 %
b0000 &
b0000 '
b0000 (
b0000 )
b0000 *
b0000000 +
b0000000 ,
b0000000 -
b0000000 .
b0000000 /
b0000000 0
$end
b0000001 +
b0000001 ,
b0000001 -
b0000001 .
b0000001 /
b1111111 0
#1
1$
b0001 %
b1001111 +
#2
0$
#3
1$
b0010 %
b0010010 +
#4
0$
#5
1$
b0011 %
b0000110 +
#6
0$
#7
1$
b0100 %
b1001100 +
#8
0$
#9
1$
b0101 %
b0100100 +
#10
0$
#11
1$
b0110 %
b0100000 +
#12
0$
#13
1$
b0111 %
b0001111 +
#14
0$
#15
1$
b1000 %
b0000000 +
#16
0$
#17
1$
b1001 %
b0000100 +
#18
0$
#19
1$
b0000 %
b0001 &
b0000001 +
b1001111 ,
#20
0$
#21
1$
b0001 %
b1001111 +
#22
0$
#23
1$
b0010 %
b0010010 +
#24
0$
#25
1$
b0011 %
b0000110 +
#26
0$
#27
1$
b0100 %
b1001100 +
#28
0$
#29
1$
b0101 %
b0100100 +
#30
0$
#31
1$
b0110 %
b0100000 +
#32
0$
#33
1$
b0111 %
b0001111 +
#34
0$
#35
1$
b1000 %
b0000000 +
#36
0$
#37
1$
b1001 %
b0000100 +
#38
0$
#39
1$
b0000 %
b0010 &
b0000001 +
b0010010 ,
#40
0$
#41
1$
b0001 %
b1001111 +
#42
0$
#43
1$
b0010 %
b0010010 +
#44
0$
#45
1$
b0011 %
b0000110 +
#46
0$
#47
1$
b0100 %
b1001100 +
#48
0$
#49
1$
b0101 %
b0100100 +
#50
0$
#51
1$
b0110 %
b0100000 +
#52
0$
#53
1$
b0111 %
b0001111 +
#54
0$
#55
1$
b1000 %
b0000000 +
#56
0$
#57
1$
b1001 %
b0000100 +
#58
0$
#59
1$
b0000 %
b0011 &
b0000001 +
b0000110 ,
#60
0$
#61
1$
b0001 %
b1001111 +
#62
0$
#63
1$
b0010 %
b0010010 +
#64
0$
#65
1$
b0011 %
b0000110 +
#66
0$
#67
1$
b0100 %
b1001100 +
#68
0$
#69
1$
b0101 %
b0100100 +
#70
0$
#71
1$
b0110 %
b0100000 +
#72
0$
#73
1$
b0111 %
b0001111 +
#74
0$
#75
1$
b1000 %
b0000000 +
#76
0$
#77
1$
b1001 %
b0000100 +
#78
0$
#79
1$
b0000 %
b0100 &
b0000001 +
b1001100 ,
#80
0$
#81
1$
b0001 %
b1001111 +
#82
0$
#83
1$
b0010 %
b0010010 +
#84
0$
#85
1$
b0011 %
b0000110 +
#86
0$
#87
1$
b0100 %
b1001100 +
#88
0$
#89
1$
b0101 %
b0100100 +
#90
0$
#91
1$
b0110 %
b0100000 +
#92
0$
#93
1$
b0111 %
b0001111 +
#94
0$
#95
1$
b1000 %
b0000000 +
#96
0$
#97
1$
b1001 %
b0000100 +
#98
0$
#99
1$
b0000 %
b0101 &
b0000001 +
b0100100 ,
#100
0$
#101
1$
b0001 %
b1001111 +
#102
0$
#103
1$
b0010 %
b0010010 +
#104
0$
#105
1$
b0011 %
b0000110 +
#106
0$
#107
1$
b0100 %
b1001100 +
#108
0$
#109
1$
b0101 %
b0100100 +
#110
0$
#111
1$
b0110 %
b0100000 +
#112
0$
#113
1$
b0111 %
b0001111 +
#114
0$
#115
1$
b1000 %
b0000000 +
#116
0$
#117
1$
b1001 %
b0000100 +
#118
0$
#119
1$
b0000 %
b0000 &
b0001 '
b0000001 +
b0000001 ,
b1001111 -
#120
0$
#121
1$
b0001 %
b1001111 +
#122
0$
#123
1$
b0010 %
b0010010 +
#124
0$
#125
1$
b0011 %
b0000110 +
#126
0$
#127
1$
b0100 %
b1001100 +
#128
0$
#129
1$
b0101 %
b0100100 +
#130
0$
#131
1$
b0110 %
b0100000 +
#132
0$
#133
1$
b0111 %
b0001111 +
#134
0$
#135
1$
b1000 %
b0000000 +
#136
0$
#137
1$
b1001 %
b0000100 +
#138
0$
#139
1$
b0000 %
b0001 &
b0000001 +
b1001111 ,
#140
0$
#141
1$
b0001 %
b1001111 +
#142
0$
#143
1$
b0010 %
b0010010 +
#144
0$
#145
1$
b0011 %
b0000110 +
#146
0$
#147
1$
b0100 %
b1001100 +
#148
0$
#149
1$
b0101 %
b0100100 +
#150
0$
#151
1$
b0110 %
b0100000 +
#152
0$
#153
1$
b0111 %
b0001111 +
#154
0$
#155
1$
b1000 %
b0000000 +
#156
0$
#157
1$
b1001 %
b0000100 +
#158
0$
#159
1$
b0000 %
b0010 &
b0000001 +
b0010010 ,
#160
0$
#161
1$
b0001 %
b1001111 +
#162
0$
#163
1$
b0010 %
b0010010 +
#164
0$
#165
1$
b0011 %
b0000110 +
#166
0$
#167
1$
b0100 %
b1001100 +
#168
0$
#169
1$
b0101 %
b0100100 +
#170
0$
#171
1$
b0110 %
b0100000 +
#172
0$
#173
1$
b0111 %
b0001111 +
#174
0$
#175
1$
b1000 %
b0000000 +
#176
0$
#177
1$
b1001 %
b0000100 +
#178
0$
#179
1$
b0000 %
b0011 &
b0000001 +
b0000110 ,
#180
0$
#181
1$
b0001 %
b1001111 +
#182
0$
#183
1$
b0010 %
b0010010 +
#184
0$
#185
1$
b0011 %
b0000110 +
#186
0$
#187
1$
b0100 %
b1001100 +
#188
0$
#189
1$
b0101 %
b0100100 +
#190
0$
#191
1$
b0110 %
b0100000 +
#192
0$
#193
1$
b0111 %
b0001111 +
#194
0$
#195
1$
b1000 %
b0000000 +
#196
0$
#197
1$
b1001 %
b0000100 +
#198
0$
#199
1$
b0000 %
b0100 &
b0000001 +
b1001100 ,
#200
0$
#201
1$
b0001 %
b1001111 +
#202
0$
#203
1$
b0010 %
b0010010 +
#204
0$
#205
1$
b0011 %
b0000110 +
#206
0$
#207
1$
b0100 %
b1001100 +
#208
0$
#209
1$
b0101 %
b0100100 +
#210
0$
#211
1$
b0110 %
b0100000 +
#212
0$
#213
1$
b0111 %
b0001111 +
#214
0$
#215
1$
b1000 %
b0000000 +
#216
0$
#217
1$
b1001 %
b0000100 +
#218
0$
#219
1$
b0000 %
b0101 &
b0000001 +
b0100100 ,
#220
0$
#221
1$
b0001 %
b1001111 +
#222
0$
#223
1$
b0010 %
b0010010 +
#224
0$
#225
1$
b0011 %
b0000110 +
#226
0$
#227
1$
b0100 %
b1001100 +
#228
0$
#229
1$
b0101 %
b0100100 +
#230
0$
#231
1$
b0110 %
b0100000 +
#232
0$
#233
1$
b0111 %
b0001111 +
#234
0$
#235
1$
b1000 %
b0000000 +
#236
0$
#237
1$
b1001 %
b0000100 +
#238
0$
#239
1$
b0000 %
b0000 &
b0010 '
b0000001 +
b0000001 ,
b0010010 -
#240
0$
#241
1$
b0001 %
b1001111 +
#242
0$
#243
1$
b0010 %
b0010010 +
#244
0$
#245
1$
b0011 %
b0000110 +
#246
0$
#247
1$
b0100 %
b1001100 +
#248
0$
#249
1$
b0101 %
b0100100 +
#250
0$
#251
1$
b0110 %
b0100000 +
#252
0$
#253
1$
b0111 %
b0001111 +
#254
0$
#255
1$
b1000 %
b0000000 +
#256
0$
#257
1$
b1001 %
b0000100 +
#258
0$
#259
1$
b0000 %
b0001 &
b0000001 +
b1001111 ,
#260
0$
#261
1$
b0001 %
b1001111 +
#262
0$
#263
1$
b0010 %
b0010010 +
#264
0$
#265
1$
b0011 %
b0000110 +
#266
0$
#267
1$
b0100 %
b1001100 +
#268
0$
#269
1$
b0101 %
b0100100 +
#270
0$
#271
1$
b0110 %
b0100000 +
#272
0$
#273
1$
b0111 %
b0001111 +
#274
0$
#275
1$
b1000 %
b0000000 +
#276
0$
#277
1$
b1001 %
b0000100 +
#278
0$
#279
1$
b0000 %
b0010 &
b0000001 +
b0010010 ,
#280
0$
#281
1$
b0001 %
b1001111 +
#282
0$
#283
1$
b0010 %
b0010010 +
#284
0$
#285
1$
b0011 %
b0000110 +
#286
0$
#287
1$
b0100 %
b1001100 +
#288
0$
#289
1$
b0101 %
b0100100 +
#290
0$
#291
1$
b0110 %
b0100000 +
#292
0$
#293
1$
b0111 %
b0001111 +
#294
0$
#295
1$
b1000 %
b0000000 +
#296
0$
#297
1$
b1001 %
b0000100 +
#298
0$
#299
1$
b0000 %
b0011 &
b0000001 +
b0000110 ,
#300
0$
#301
1$
b0001 %
b1001111 +
#302
0$
#303
1$
b0010 %
b0010010 +
#304
0$
#305
1$
b0011 %
b0000110 +
#306
0$
#307
1$
b0100 %
b1001100 +
#308
0$
#309
1$
b0101 %
b0100100 +
#310
0$
#311
1$
b0110 %
b0100000 +
#312
0$
#313
1$
b0111 %
b0001111 +
#314
0$
#315
1$
b1000 %
b0000000 +
#316
0$
#317
1$
b1001 %
b0000100 +
#318
0$
#319
1$
b0000 %
b0100 &
b0000001 +
b1001100 ,
#320
0$
#321
1$
b0001 %
b1001111 +
#322
0$
#323
1$
b0010 %
b0010010 +
#324
0$
#325
1$
b0011 %
b0000110 +
#326
0$
#327
1$
b0100 %
b1001100 +
#328
0$
#329
1$
b0101 %
b0100100 +
#330
0$
#331
1$
b0110 %
b0100000 +
#332
0$
#333
1$
b0111 %
b0001111 +
#334
0$
#335
1$
b1000 %
b0000000 +
#336
0$
#337
1$
b1001 %
b0000100 +
#338
0$
#339
1$
b0000 %
b0101 &
b0000001 +
b0100100 ,
#340
0$
#341
1$
b0001 %
b1001111 +
#342
0$
#343
1$
b0010 %
b0010010 +
#344
0$
#345
1$
b0011 %
b0000110 +
#346
0$
#347
1$
b0100 %
b1001100 +
#348
0$
#349
1$
b0101 %
b0100100 +
#350
0$
#351
1$
b0110 %
b0100000 +
#352
0$
#353
1$
b0111 %
b0001111 +
#354
0$
#355
1$
b1000 %
b0000000 +
#356
0$
#357
1$
b1001 %
b0000100 +
#358
0$
#359
1$
b0000 %
b0000 &
b0011 '
b0000001 +
b0000001 ,
b0000110 -
#360
0$
#361
1$
b0001 %
b1001111 +
#362
0$
#363
1$
b0010 %
b0010010 +
#364
0$
#365
1$
b0011 %
b0000110 +
#366
0$
#367
1$
b0100 %
b1001100 +
#368
0$
#369
1$
b0101 %
b0100100 +
#370
0$
#371
1$
b0110 %
b0100000 +
#372
0$
#373
1$
b0111 %
b0001111 +
#374
0$
#375
1$
b1000 %
b0000000 +
#376
0$
#377
1$
b1001 %
b0000100 +
#378
0$
#379
1$
b0000 %
b0001 &
b0000001 +
b1001111 ,
#380
0$
#381
1$
b0001 %
b1001111 +
#382
0$
#383
1$
b0010 %
b0010010 +
#384
0$
#385
1$
b0011 %
b0000110 +
#386
0$
#387
1$
b0100 %
b1001100 +
#388
0$
#389
1$
b0101 %
b0100100 +
#390
0$
#391
1$
b0110 %
b0100000 +
#392
0$
#393
1$
b0111 %
b0001111 +
#394
0$
#395
1$
b1000 %
b0000000 +
#396
0$
#397
1$
b1001 %
b0000100 +
#398
0$
#399
1$
b0000 %
b0010 &
b0000001 +
b0010010 ,
#400
0$
#401
1$
b0001 %
b1001111 +
#402
0$
#403
1$
b0010 %
b0010010 +
#404
0$
#405
1$
b0011 %
b0000110 +
#406
0$
#407
1$
b0100 %
b1001100 +
#408
0$
#409
1$
b0101 %
b0100100 +
#410
0$
#411
1$
b0110 %
b0100000 +
#412
0$
#413
1$
b0111 %
b0001111 +
#414
0$
#415
1$
b1000 %
b0000000 +
#416
0$
#417
1$
b1001 %
b0000100 +
#418
0$
#419
1$
b0000 %
b0011 &
b0000001 +
b0000110 ,
#420
0$
#421
1$
b0001 %
b1001111 +
#422
0$
#423
1$
b0010 %
b0010010 +
#424
0$
#425
1$
b0011 %
b0000110 +
#426
0$
#427
1$
b0100 %
b1001100 +
#428
0$
#429
1$
b0101 %
b0100100 +
#430
0$
#431
1$
b0110 %
b0100000 +
#432
0$
#433
1$
b0111 %
b0001111 +
#434
0$
#435
1$
b1000 %
b0000000 +
#436
0$
#437
1$
b1001 %
b0000100 +
#438
0$
#439
1$
b0000 %
b0100 &
b0000001 +
b1001100 ,
#440
0$
#441
1$
b0001 %
b1001111 +
#442
0$
#443
1$
b0010 %
b0010010 +
#444
0$
#445
1$
b0011 %
b0000110 +
#446
0$
#447
1$
b0100 %
b1001100 +
#448
0$
#449
1$
b0101 %
b0100100 +
#450
0$
#451
1$
b0110 %
b0100000 +
#452
0$
#453
1$
b0111 %
b0001111 +
#454
0$
#455
1$
b1000 %
b0000000 +
#456
0$
#457
1$
b1001 %
b0000100 +
#458
0$
#459
1$
b0000 %
b0101 &
b0000001 +
b0100100 ,
#460
0$
#461
1$
b0001 %
b1001111 +
#462
0$
#463
1$
b0010 %
b0010010 +
#464
0$
#465
1$
b0011 %
b0000110 +
#466
0$
#467
1$
b0100 %
b1001100 +
#468
0$
#469
1$
b0101 %
b0100100 +
#470
0$
#471
1$
b0110 %
b0100000 +
#472
0$
#473
1$
b0111 %
b0001111 +
#474
0$
#475
1$
b1000 %
b0000000 +
#476
0$
#477
1$
b1001 %
b0000100 +
#478
0$
#479
1$
b0000 %
b0000 &
b0100 '
b0000001 +
b0000001 ,
b1001100 -
#480
0$
#481
1$
b0001 %
b1001111 +
#482
0$
#483
1$
b0010 %
b0010010 +
#484
0$
#485
1$
b0011 %
b0000110 +
#486
0$
#487
1$
b0100 %
b1001100 +
#488
0$
#489
1$
b0101 %
b0100100 +
#490
0$
#491
1$
b0110 %
b0100000 +
#492
0$
#493
1$
b0111 %
b0001111 +
#494
0$
#495
1$
b1000 %
b0000000 +
#496
0$
#497
1$
b1001 %
b0000100 +
#498
0$
#499
1$
b0000 %
b0001 &
b0000001 +
b1001111 ,
#500
0$
#501
1$
b0001 %
b1001111 +
#502
0$
#503
1$
b0010 %
b0010010 +
#504
0$
#505
1$
b0011 %
b0000110 +
#506
0$
#507
1$
b0100 %
b1001100 +
#508
0$
#509
1$
b0101 %
b0100100 +
#510
0$
#511
1$
b0110 %
b0100000 +
#512
0$
#513
1$
b0111 %
b0001111 +
#514
0$
#515
1$
b1000 %
b0000000 +
#516
0$
#517
1$
b1001 %
b0000100 +
#518
0$
#519
1$
b0000 %
b0010 &
b0000001 +
b0010010 ,
#520
0$
#521
1$
b0001 %
b1001111 +
#522
0$
#523
1$
b0010 %
b0010010 +
#524
0$
#525
1$
b0011 %
b0000110 +
#526
0$
#527
1$
b0100 %
b1001100 +
#528
0$
#529
1$
b0101 %
b0100100 +
#530
0$
#531
1$
b0110 %
b0100000 +
#532
0$
#533
1$
b0111 %
b0001111 +
#534
0$
#535
1$
b1000 %
b0000000 +
#536
0$
#537
1$
b1001 %
b0000100 +
#538
0$
#539
1$
b0000 %
b0011 &
b0000001 +
b0000110 ,
#540
0$
#541
1$
b0001 %
b1001111 +
#542
0$
#543
1$
b0010 %
b0010010 +
#544
0$
#545
1$
b0011 %
b0000110 +
#546
0$
#547
1$
b0100 %
b1001100 +
#548
0$
#549
1$
b0101 %
b0100100 +
#550
0$
#551
1$
b0110 %
b0100000 +
#552
0$
#553
1$
b0111 %
b0001111 +
#554
0$
#555
1$
b1000 %
b0000000 +
#556
0$
#557
1$
b1001 %
b0000100 +
#558
0$
#559
1$
b0000 %
b0100 &
b0000001 +
b1001100 ,
#560
0$
#561
1$
b0001 %
b1001111 +
#562
0$
#563
1$
b0010 %
b0010010 +
#564
0$
#565
1$
b0011 %
b0000110 +
#566
0$
#567
1$
b0100 %
b1001100 +
#568
0$
#569
1$
b0101 %
b0100100 +
#570
0$
#571
1$
b0110 %
b0100000 +
#572
0$
#573
1$
b0111 %
b0001111 +
#574
0$
#575
1$
b1000 %
b0000000 +
#576
0$
#577
1$
b1001 %
b0000100 +
#578
0$
#579
1$
b0000 %
b0101 &
b0000001 +
b0100100 ,
#580
0$
#581
1$
b0001 %
b1001111 +
#582
0$
#583
1$
b0010 %
b0010010 +
#584
0$
#585
1$
b0011 %
b0000110 +
#586
0$
#587
1$
b0100 %
b1001100 +
#588
0$
#589
1$
b0101 %
b0100100 +
#590
0$
#591
1$
b0110 %
b0100000 +
#592
0$
#593
1$
b0111 %
b0001111 +
#594
0$
#595
1$
b1000 %
b0000000 +
#596
0$
#597
1$
b1001 %
b0000100 +
#598
0$
#599
1$
b0000 %
b0000 &
b0101 '
b0000001 +
b0000001 ,
b0100100 -
#600
0$
#601
1$
b0001 %
b1001111 +
#602
0$
#603
1$
b0010 %
b0010010 +
#604
0$
#605
1$
b0011 %
b0000110 +
#606
0$
#607
1$
b0100 %
b1001100 +
#608
0$
#609
1$
b0101 %
b0100100 +
#610
0$
#611
1$
b0110 %
b0100000 +
#612
0$
#613
1$
b0111 %
b0001111 +
#614
0$
#615
1$
b1000 %
b0000000 +
#616
0$
#617
1$
b1001 %
b0000100 +
#618
0$
#619
1$
b0000 %
b0001 &
b0000001 +
b1001111 ,
#620
0$
#621
1$
b0001 %
b1001111 +
#622
0$
#623
1$
b0010 %
b0010010 +
#624
0$
#625
1$
b0011 %
b0000110 +
#626
0$
#627
1$
b0100 %
b1001100 +
#628
0$
#629
1$
b0101 %
b0100100 +
#630
0$
#631
1$
b0110 %
b0100000 +
#632
0$
#633
1$
b0111 %
b0001111 +
#634
0$
#635
1$
b1000 %
b0000000 +
#636
0$
#637
1$
b1001 %
b0000100 +
#638
0$
#639
1$
b0000 %
b0010 &
b0000001 +
b0010010 ,
#640
0$
#641
1$
b0001 %
b1001111 +
#642
0$
#643
1$
b0010 %
b0010010 +
#644
0$
#645
1$
b0011 %
b0000110 +
#646
0$
#647
1$
b0100 %
b1001100 +
#648
0$
#649
1$
b0101 %
b0100100 +
#650
0$
#651
1$
b0110 %
b0100000 +
#652
0$
#653
1$
b0111 %
b0001111 +
#654
0$
#655
1$
b1000 %
b0000000 +
#656
0$
#657
1$
b1001 %
b0000100 +
#658
0$
#659
1$
b0000 %
b0011 &
b0000001 +
b0000110 ,
#660
0$
#661
1$
b0001 %
b1001111 +
#662
0$
#663
1$
b0010 %
b0010010 +
#664
0$
#665
1$
b0011 %
b0000110 +
#666
0$
#667
1$
b0100 %
b1001100 +
#668
0$
#669
1$
b0101 %
b0100100 +
#670
0$
#671
1$
b0110 %
b0100000 +
#672
0$
#673
1$
b0111 %
b0001111 +
#674
0$
#675
1$
b1000 %
b0000000 +
#676
0$
#677
1$
b1001 %
b0000100 +
#678
0$
#679
1$
b0000 %
b0100 &
b0000001 +
b1001100 ,
#680
0$
#681
1$
b0001 %
b1001111 +
#682
0$
#683
1$
b0010 %
b0010010 +
#684
0$
#685
1$
b0011 %
b0000110 +
#686
0$
#687
1$
b0100 %
b1001100 +
#688
0$
#689
1$
b0101 %
b0100100 +
#690
0$
#691
1$
b0110 %
b0100000 +
#692
0$
#693
1$
b0111 %
b0001111 +
#694
0$
#695
1$
b1000 %
b0000000 +
#696
0$
#697
1$
b1001 %
b0000100 +
#698
0$
#699
1$
b0000 %
b0101 &
b0000001 +
b0100100 ,
#700
0$
#701
1$
b0001 %
b1001111 +
#702
0$
#703
1$
b0010 %
b0010010 +
#704
0$
#705
1$
b0011 %
b0000110 +
#706
0$
#707
1$
b0100 %
b1001100 +
#708
0$
#709
1$
b0101 %
b0100100 +
#710
0$
#711
1$
b0110 %
b0100000 +
#712
0$
#713
1$
b0111 %
b0001111 +
#714
0$
#715
1$
b1000 %
b0000000 +
#716
0$
#717
1$
b1001 %
b0000100 +
#718
0$
#719
1$
b0000 %
b0000 &
b0110 '
b0000001 +
b0000001 ,
b0100000 -
#720
0$
#721
1$
b0001 %
b1001111 +
#722
0$
#723
1$
b0010 %
b0010010 +
#724
0$
#725
1$
b0011 %
b0000110 +
#726
0$
#727
1$
b0100 %
b1001100 +
#728
0$
#729
1$
b0101 %
b0100100 +
#730
0$
#731
1$
b0110 %
b0100000 +
#732
0$
#733
1$
b0111 %
b0001111 +
#734
0$
#735
1$
b1000 %
b0000000 +
#736
0$
#737
1$
b1001 %
b0000100 +
#738
0$
#739
1$
b0000 %
b0001 &
b0000001 +
b1001111 ,
#740
0$
#741
1$
b0001 %
b1001111 +
#742
0$
#743
1$
b0010 %
b0010010 +
#744
0$
#745
1$
b0011 %
b0000110 +
#746
0$
#747
1$
b0100 %
b1001100 +
#748
0$
#749
1$
b0101 %
b0100100 +
#750
0$
#751
1$
b0110 %
b0100000 +
#752
0$
#753
1$
b0111 %
b0001111 +
#754
0$
#755
1$
b1000 %
b0000000 +
#756
0$
#757
1$
b1001 %
b0000100 +
#758
0$
#759
1$
b0000 %
b0010 &
b0000001 +
b0010010 ,
#760
0$
#761
1$
b0001 %
b1001111 +
#762
0$
#763
1$
b0010 %
b0010010 +
#764
0$
#765
1$
b0011 %
b0000110 +
#766
0$
#767
1$
b0100 %
b1001100 +
#768
0$
#769
1$
b0101 %
b0100100 +
#770
0$
#771
1$
b0110 %
b0100000 +
#772
0$
#773
1$
b0111 %
b0001111 +
#774
0$
#775
1$
b1000 %
b0000000 +
#776
0$
#777
1$
b1001 %
b0000100 +
#778
0$
#779
1$
b0000 %
b0011 &
b0000001 +
b0000110 ,
#780
0$
#781
1$
b0001 %
b1001111 +
#782
0$
#783
1$
b0010 %
b0010010 +
#784
0$
#785
1$
b0011 %
b0000110 +
#786
0$
#787
1$
b0100 %
b1001100 +
#788
0$
#789
1$
b0101 %
b0100100 +
#790
0$
#791
1$
b0110 %
b0100000 +
#792
0$
#793
1$
b0111 %
b0001111 +
#794
0$
#795
1$
b1000 %
b0000000 +
#796
0$
#797
1$
b1001 %
b0000100 +
#798
0$
#799
1$
b0000 %
b0100 &
b0000001 +
b1001100 ,
#800
0$
#801
1$
b0001 %
b1001111 +
#802
0$
#803
1$
b0010 %
b0010010 +
#804
0$
#805
1$
b0011 %
b0000110 +
#806
0$
#807
1$
b0100 %
b1001100 +
#808
0$
#809
1$
b0101 %
b0100100 +
#810
0$
#811
1$
b0110 %
b0100000 +
#812
0$
#813
1$
b0111 %
b0001111 +
#814
0$
#815
1$
b1000 %
b0000000 +
#816
0$
#817
1$
b1001 %
b0000100 +
#818
0$
#819
1$
b0000 %
b0101 &
b0000001 +
b0100100 ,
#820
0$
#821
1$
b0001 %
b1001111 +
#822
0$
#823
1$
b0010 %
b0010010 +
#824
0$
#825
1$
b0011 %
b0000110 +
#826
0$
#827
1$
b0100 %
b1001100 +
#828
0$
#829
1$
b0101 %
b0100100 +
#830
0$
#831
1$
b0110 %
b0100000 +
#832
0$
#833
1$
b0111 %
b0001111 +
#834
0$
#835
1$
b1000 %
b0000000 +
#836
0$
#837
1$
b1001 %
b0000100 +
#838
0$
#839
1$
b0000 %
b0000 &
b0111 '
b0000001 +
b0000001 ,
b0001111 -
#840
0$
#841
1$
b0001 %
b1001111 +
#842
0$
#843
1$
b0010 %
b0010010 +
#844
0$
#845
1$
b0011 %
b0000110 +
#846
0$
#847
1$
b0100 %
b1001100 +
#848
0$
#849
1$
b0101 %
b0100100 +
#850
0$
#851
1$
b0110 %
b0100000 +
#852
0$
#853
1$
b0111 %
b0001111 +
#854
0$
#855
1$
b1000 %
b0000000 +
#856
0$
#857
1$
b1001 %
b0000100 +
#858
0$
#859
1$
b0000 %
b0001 &
b0000001 +
b1001111 ,
#860
0$
#861
1$
b0001 %
b1001111 +
#862
0$
#863
1$
b0010 %
b0010010 +
#864
0$
#865
1$
b0011 %
b0000110 +
#866
0$
#867
1$
b0100 %
b1001100 +
#868
0$
#869
1$
b0101 %
b0100100 +
#870
0$
#871
1$
b0110 %
b0100000 +
#872
0$
#873
1$
b0111 %
b0001111 +
#874
0$
#875
1$
b1000 %
b0000000 +
#876
0$
#877
1$
b1001 %
b0000100 +
#878
0$
#879
1$
b0000 %
b0010 &
b0000001 +
b0010010 ,
#880
0$
#881
1$
b0001 %
b1001111 +
#882
0$
#883
1$
b0010 %
b0010010 +
#884
0$
#885
1$
b0011 %
b0000110 +
#886
0$
#887
1$
b0100 %
b1001100 +
#888
0$
#889
1$
b0101 %
b0100100 +
#890
0$
#891
1$
b0110 %
b0100000 +
#892
0$
#893
1$
b0111 %
b0001111 +
#894
0$
#895
1$
b1000 %
b0000000 +
#896
0$
#897
1$
b1001 %
b0000100 +
#898
0$
#899
1$
b0000 %
b0011 &
b0000001 +
b0000110 ,
#900
0$
#901
1$
b0001 %
b1001111 +
#902
0$
#903
1$
b0010 %
b0010010 +
#904
0$
#905
1$
b0011 %
b0000110 +
#906
0$
#907
1$
b0100 %
b1001100 +
#908
0$
#909
1$
b0101 %
b0100100 +
#910
0$
#911
1$
b0110 %
b0100000 +
#912
0$
#913
1$
b0111 %
b0001111 +
#914
0$
#915
1$
b1000 %
b0000000 +
#916
0$
#917
1$
b1001 %
b0000100 +
#918
0$
#919
1$
b0000 %
b0100 &
b0000001 +
b1001100 ,
#920
0$
#921
1$
b0001 %
b1001111 +
#922
0$
#923
1$
b0010 %
b0010010 +
#924
0$
#925
1$
b0011 %
b0000110 +
#926
0$
#927
1$
b0100 %
b1001100 +
#928
0$
#929
1$
b0101 %
b0100100 +
#930
0$
#931
1$
b0110 %
b0100000 +
#932
0$
#933
1$
b0111 %
b0001111 +
#934
0$
#935
1$
b1000 %
b0000000 +
#936
0$
#937
1$
b1001 %
b0000100 +
#938
0$
#939
1$
b0000 %
b0101 &
b0000001 +
b0100100 ,
#940
0$
#941
1$
b0001 %
b1001111 +
#942
0$
#943
1$
b0010 %
b0010010 +
#944
0$
#945
1$
b0011 %
b0000110 +
#946
0$
#947
1$
b0100 %
b1001100 +
#948
0$
#949
1$
b0101 %
b0100100 +
#950
0$
#951
1$
b0110 %
b0100000 +
#952
0$
#953
1$
b0111 %
b0001111 +
#954
0$
#955
1$
b1000 %
b0000000 +
#956
0$
#957
1$
b1001 %
b0000100 +
#958
0$
#959
1$
b0000 %
b0000 &
b1000 '
b0000001 +
b0000001 ,
b0000000 -
#960
0$
#961
1$
b0001 %
b1001111 +
#962
0$
#963
1$
b0010 %
b0010010 +
#964
0$
#965
1$
b0011 %
b0000110 +
#966
0$
#967
1$
b0100 %
b1001100 +
#968
0$
#969
1$
b0101 %
b0100100 +
#970
0$
#971
1$
b0110 %
b0100000 +
#972
0$
#973
1$
b0111 %
b0001111 +
#974
0$
#975
1$
b1000 %
b0000000 +
#976
0$
#977
1$
b1001 %
b0000100 +
#978
0$
#979
1$
b0000 %
b0001 &
b0000001 +
b1001111 ,
#980
0$
#981
1$
b0001 %
b1001111 +
#982
0$
#983
1$
b0010 %
b0010010 +
#984
0$
#985
1$
b0011 %
b0000110 +
#986
0$
#987
1$
b0100 %
b1001100 +
#988
0$
#989
1$
b0101 %
b0100100 +
#990
0$
#991
1$
b0110 %
b0100000 +
#992
0$
#993
1$
b0111 %
b0001111 +
#994
0$
#995
1$
b1000 %
b0000000 +
#996
0$
#997
1$
b1001 %
b0000100 +
#998
0$
#999
1$
b0000 %
b0010 &
b0000001 +
b0010010 ,
#1000
0$
#1001
1$
b0001 %
b1001111 +
#1002
0$
#1003
1$
b0010 %
b0010010 +
#1004
0$
#1005
1$
b0011 %
b0000110 +
#1006
0$
#1007
1$
b0100 %
b1001100 +
#1008
0$
#1009
1$
b0101 %
b0100100 +
#1010
0$
#1011
1$
b0110 %
b0100000 +
#1012
0$
#1013
1$
b0111 %
b0001111 +
#1014
0$
#1015
1$
b1000 %
b0000000 +
#1016
0$
#1017
1$
b1001 %
b0000100 +
#1018
0$
#1019
1$
b0000 %
b0011 &
b0000001 +
b0000110 ,
#1020
0$
#1021
1$
b0001 %
b1001111 +
#1022
0$
#1023
1$
b0010 %
b0010010 +
#1024
0$
#1025
1$
b0011 %
b0000110 +
#1026
0$
#1027
1$
b0100 %
b1001100 +
#1028
0$
#1029
1$
b0101 %
b0100100 +
#1030
0$
#1031
1$
b0110 %
b0100000 +
#1032
0$
#1033
1$
b0111 %
b0001111 +
#1034
0$
#1035
1$
b1000 %
b0000000 +
#1036
0$
#1037
1$
b1001 %
b0000100 +
#1038
0$
#1039
1$
b0000 %
b0100 &
b0000001 +
b1001100 ,
#1040
0$
#1041
1$
b0001 %
b1001111 +
#1042
0$
#1043
1$
b0010 %
b0010010 +
#1044
0$
#1045
1$
b0011 %
b0000110 +
#1046
0$
#1047
1$
b0100 %
b1001100 +
#1048
0$
#1049
1$
b0101 %
b0100100 +
#1050
0$
#1051
1$
b0110 %
b0100000 +
#1052
0$
#1053
1$
b0111 %
b0001111 +
#1054
0$
#1055
1$
b1000 %
b0000000 +
#1056
0$
#1057
1$
b1001 %
b0000100 +
#1058
0$
#1059
1$
b0000 %
b0101 &
b0000001 +
b0100100 ,
#1060
0$
#1061
1$
b0001 %
b1001111 +
#1062
0$
#1063
1$
b0010 %
b0010010 +
#1064
0$
#1065
1$
b0011 %
b0000110 +
#1066
0$
